DS 202 Lab 3
…
To deal with the uneven sample sizes, I divided the number of happy people in each marital status by the total number of people in that marital status to get the percentage of happiness in each marriage status. We can see that over 85% of married people are happy. The people with no answer to marital status had the lowest percent happiness around 60%. Widowed people had higher percentages of happiness than those separated or divorced.

Does party affiliation affect the relationship you found in the last question?

dat %>% 
  group_by(marriage, party) %>% 
  mutate(total_count = n()) %>% 
  filter(happy %in% c("Very happy", "Pretty happy")) %>% 
  summarize(count = n(), prop_happy = count/total_count) %>% 
  arrange(prop_happy) %>% 
  distinct

## # A tibble: 56 x 4
## # Groups:   marriage, party [56]
##    marriage      party             count prop_happy
##    <chr>         <chr>             <int>      <dbl>
##  1 Never married Don't know            1      0.5  
##  2 No answer     Ind,near dem          1      0.5  
##  3 No answer     No answer             3      0.5  
##  4 No answer     Strong democrat       1      0.5  
##  5 No answer     Strong republican     1      0.5  
##  6 Widowed       Don't know            1      0.5  
##  7 Separated     Strong republican    76      0.598
##  8 Separated     No answer            10      0.625
##  9 Separated     Independent         283      0.645
## 10 Separated     Ind,near dem        193      0.645
## #  with 46 more rows
…
